{
	"info": {
		"_postman_id": "dfc70833-d68f-47b6-8b4f-6f2c22f817f3",
		"name": "Zibal Payment",
		"schema": "https://schema.getpostman.com/json/collection/v2.1.0/collection.json"
	},
	"item": [
		{
			"name": "New Transaction",
			"request": {
				"method": "POST",
				"header": [],
				"body": {
					"mode": "raw",
					"raw": "{\r\n    \"user_id\": \"5416f54ghj6dfg41j6df541j\",\r\n    \"order_id\": \"fg574ewsrt5g4esth4herth\",\r\n    \"price\": 18000\r\n}",
					"options": {
						"raw": {
							"language": "json"
						}
					}
				},
				"url": {
					"raw": "localhost:8000/transaction/new_transaction/",
					"host": [
						"localhost"
					],
					"port": "8000",
					"path": [
						"transaction",
						"new_transaction",
						""
					]
				}
			},
			"response": []
		},
		{
			"name": "Transaction List",
			"request": {
				"method": "GET",
				"header": [],
				"url": {
					"raw": "localhost:8000/transaction/api/v1/transaction/?page=1&user_id=5416f54ghj6dfg41j6df541j&track_id=123567024",
					"host": [
						"localhost"
					],
					"port": "8000",
					"path": [
						"transaction",
						"api",
						"v1",
						"transaction",
						""
					],
					"query": [
						{
							"key": "page",
							"value": "1"
						},
						{
							"key": "user_id",
							"value": "5416f54ghj6dfg41j6df541j"
						},
						{
							"key": "track_id",
							"value": "123567024"
						}
					]
				}
			},
			"response": []
		}
	],
	"protocolProfileBehavior": {}
}