{
	"info": {
		"_postman_id": "25fc0b01-3f9e-471c-a576-da1f8736d41a",
		"name": "Zibal Notifications",
		"schema": "https://schema.getpostman.com/json/collection/v2.1.0/collection.json"
	},
	"item": [
		{
			"name": "Notification List",
			"request": {
				"method": "GET",
				"header": [],
				"url": {
					"raw": "http://localhost:8000/notifier/api/v1/notifications/?page=1&transaction=5f8b1ce8e9b429d25ff5ac79",
					"protocol": "http",
					"host": [
						"localhost"
					],
					"port": "8000",
					"path": [
						"notifier",
						"api",
						"v1",
						"notifications",
						""
					],
					"query": [
						{
							"key": "page",
							"value": "1"
						},
						{
							"key": "transaction",
							"value": "5f8b1ce8e9b429d25ff5ac79"
						}
					]
				}
			},
			"response": []
		}
	],
	"protocolProfileBehavior": {}
}